<?xml version="1.0" encoding="UTF-8"?>
<svg width="42px" height="42px" viewBox="0 0 42 42" version="1.1" xmlns="http://www.w3.org/2000/svg" xmlns:xlink="http://www.w3.org/1999/xlink">
    <!-- Generator: Sketch 60.1 (88133) - https://sketch.com -->
    <title>Group</title>
    <desc>Created with Sketch.</desc>
    <g id="Page-1" stroke="none" stroke-width="1" fill="none" fill-rule="evenodd">
        <g id="Artboard" transform="translate(-351.000000, -388.000000)">
            <g id="Group" transform="translate(352.000000, 389.000000)">
                <path d="M20,40 C31.0457,40 40,31.0457 40,20 C40,8.9543 31.0457,0 20,0 C8.9543,0 0,8.9543 0,20 C0,31.0457 8.9543,40 20,40 Z" id="Path" stroke="#3D8FCB" stroke-width="2" fill="#FFFFFF"></path>
                <path d="M16.5311,26 L16.5311,25.008 L20.5151,20.592 C21.0485,19.9947 21.4378,19.456 21.6831,18.976 C21.9285,18.496 22.0511,18.016 22.0511,17.536 C22.0511,16.9067 21.8698,16.4267 21.5071,16.096 C21.1445,15.7547 20.6271,15.584 19.9551,15.584 C19.4005,15.584 18.8565,15.696 18.3231,15.92 C17.7898,16.1333 17.2565,16.4587 16.7231,16.896 L16.2271,15.888 C16.6751,15.4613 17.2405,15.12 17.9231,14.864 C18.6058,14.608 19.2938,14.48 19.9871,14.48 C20.6805,14.48 21.2778,14.6027 21.7791,14.848 C22.2911,15.0827 22.6858,15.424 22.9631,15.872 C23.2405,16.32 23.3791,16.8533 23.3791,17.472 C23.3791,18.1227 23.2298,18.752 22.9311,19.36 C22.6431,19.9573 22.1578,20.6293 21.4751,21.376 L17.6351,25.536 L17.5391,24.896 L23.8591,24.896 L23.8591,26 L16.5311,26 Z" id="Path" fill="#3478AB" fill-rule="nonzero"></path>
            </g>
        </g>
    </g>
</svg>