<?xml version="1.0" encoding="UTF-8"?>
<svg width="102px" height="31px" viewBox="0 0 102 31" version="1.1" xmlns="http://www.w3.org/2000/svg" xmlns:xlink="http://www.w3.org/1999/xlink">
    <!-- Generator: Sketch 60.1 (88133) - https://sketch.com -->
    <title>Group</title>
    <desc>Created with Sketch.</desc>
    <defs>
        <polygon id="path-1" points="0.625 4.0777 30.5086 4.0777 30.5086 0.156 0.625 0.156"></polygon>
        <polygon id="path-3" points="0.9761 26.0776 32.831 26.0776 32.831 0.56226 0.9761 0.56226"></polygon>
    </defs>
    <g id="Page-1" stroke="none" stroke-width="1" fill="none" fill-rule="evenodd">
        <g id="Artboard" transform="translate(-337.000000, -280.000000)">
            <g id="Group" transform="translate(338.000000, 280.000000)">
                <rect id="Rectangle" fill="#000000" fill-rule="nonzero" x="53.2607" y="0" width="47.4783" height="30.7478" rx="4.5"></rect>
                <g id="Clipped" transform="translate(62.000000, 24.000000)">
                    <mask id="mask-2" fill="white">
                        <use xlink:href="#path-1"></use>
                    </mask>
                    <g id="Path"></g>
                    <path d="M27.1765,2.586 C27.1765,2.0786 27.4885,1.6726 27.9925,1.6726 C28.4743,1.6726 28.7918,2.0617 28.7918,2.586 C28.7918,3.1103 28.4743,3.4994 27.9925,3.4994 C27.4885,3.4994 27.1765,3.0934 27.1765,2.586 Z M29.2955,2.586 L29.2955,0.156 L28.7699,0.156 L28.7699,1.5656 C28.5892,1.3231 28.2936,1.1708 27.9211,1.1708 C27.1874,1.1708 26.6288,1.7629 26.6288,2.586 C26.6288,3.4093 27.1874,4.0012 27.9211,4.0012 C28.2936,4.0012 28.5892,3.8488 28.7699,3.6064 L28.7699,3.9336 L29.2955,3.9336 L29.2955,2.586 Z M21.8925,2.586 C21.8925,2.0786 22.2045,1.6726 22.7082,1.6726 C23.1901,1.6726 23.5078,2.0617 23.5078,2.586 C23.5078,3.1103 23.1901,3.4994 22.7082,3.4994 C22.2045,3.4994 21.8925,3.0934 21.8925,2.586 Z M24.0115,2.586 L24.0115,1.2384 L23.4859,1.2384 L23.4859,1.5656 C23.3052,1.3231 23.0096,1.1708 22.6371,1.1708 C21.9034,1.1708 21.3448,1.7629 21.3448,2.586 C21.3448,3.4093 21.9034,4.0012 22.6371,4.0012 C23.0096,4.0012 23.3052,3.8488 23.4859,3.6064 L23.4859,3.9336 L24.0115,3.9336 L24.0115,2.586 Z M30.1996,3.7314 L30.1996,3.7979 L30.2589,3.7979 C30.2723,3.7979 30.2832,3.7951 30.2914,3.7894 C30.2994,3.7841 30.3035,3.7756 30.3035,3.7644 C30.3035,3.7534 30.2994,3.7452 30.2914,3.7396 C30.2832,3.7342 30.2723,3.7314 30.2589,3.7314 L30.1996,3.7314 Z M30.2594,3.685 C30.2903,3.685 30.3144,3.692 30.3311,3.7064 C30.3478,3.7204 30.3562,3.7399 30.3562,3.7644 C30.3562,3.7849 30.3494,3.8018 30.3363,3.8151 C30.3229,3.8283 30.3037,3.8367 30.2791,3.8396 L30.3582,3.9333 L30.2964,3.9333 L30.2231,3.8404 L30.1996,3.8404 L30.1996,3.9333 L30.1481,3.9333 L30.1481,3.685 L30.2594,3.685 Z M30.2441,4.0186 C30.2723,4.0186 30.2983,4.0133 30.3226,4.0023 C30.3467,3.9913 30.368,3.9764 30.3861,3.9578 C30.4044,3.9389 30.4186,3.917 30.4293,3.8914 C30.4397,3.866 30.4448,3.839 30.4448,3.8103 C30.4448,3.7813 30.4397,3.7542 30.4293,3.7289 C30.4186,3.7036 30.4044,3.6816 30.3861,3.6627 C30.368,3.6439 30.3467,3.6292 30.3226,3.6185 C30.2983,3.6075 30.2723,3.6022 30.2441,3.6022 C30.2157,3.6022 30.1889,3.6075 30.1643,3.6185 C30.1394,3.6292 30.1178,3.6439 30.0995,3.6627 C30.0814,3.6816 30.0669,3.7036 30.0565,3.7289 C30.0461,3.7542 30.041,3.7813 30.041,3.8103 C30.041,3.839 30.0461,3.866 30.0565,3.8914 C30.0669,3.917 30.0814,3.9389 30.0995,3.9578 C30.1178,3.9764 30.1394,3.9913 30.1643,4.0023 C30.1889,4.0133 30.2157,4.0186 30.2441,4.0186 Z M30.2441,3.5428 C30.2808,3.5428 30.315,3.5498 30.347,3.5636 C30.3789,3.5777 30.4071,3.5968 30.4312,3.621 C30.455,3.6453 30.4738,3.6737 30.4878,3.7064 C30.5015,3.7387 30.5086,3.7734 30.5086,3.8103 C30.5086,3.8469 30.5015,3.8815 30.4878,3.9139 C30.4738,3.9463 30.455,3.9744 30.4312,3.9986 C30.4071,4.0229 30.3789,4.0423 30.347,4.0564 C30.315,4.0707 30.2808,4.0778 30.2441,4.0778 C30.2067,4.0778 30.1719,4.0707 30.1394,4.0564 C30.1069,4.0423 30.0787,4.0229 30.0552,3.9986 C30.0311,3.9744 30.0125,3.9463 29.9986,3.9139 C29.9849,3.8815 29.9781,3.8469 29.9781,3.8103 C29.9781,3.7734 29.9849,3.7387 29.9986,3.7064 C30.0125,3.6737 30.0311,3.6453 30.0552,3.621 C30.0787,3.5968 30.1069,3.5777 30.1394,3.5636 C30.1719,3.5498 30.2067,3.5428 30.2441,3.5428 Z M26.0266,1.1708 C25.6982,1.1708 25.4625,1.3288 25.3148,1.5656 L25.3148,1.2384 L24.7944,1.2384 L24.7944,3.9336 L25.3203,3.9336 L25.3203,2.4168 C25.3203,1.9713 25.5284,1.6838 25.9006,1.6838 C26.0157,1.6838 26.136,1.7007 26.2566,1.7514 L26.4319,1.244 C26.3058,1.1933 26.1415,1.1708 26.0266,1.1708 Z M5.8212,2.586 C5.8212,2.0786 6.1335,1.6726 6.6372,1.6726 C7.119,1.6726 7.4368,2.0617 7.4368,2.586 C7.4368,3.1103 7.119,3.4994 6.6372,3.4994 C6.1335,3.4994 5.8212,3.0934 5.8212,2.586 Z M7.9405,2.586 L7.9405,1.2384 L7.4146,1.2384 L7.4146,1.5656 C7.2342,1.3231 6.9383,1.1708 6.5661,1.1708 C5.8324,1.1708 5.2738,1.7629 5.2738,2.586 C5.2738,3.4093 5.8324,4.0012 6.5661,4.0012 C6.9383,4.0012 7.2342,3.8488 7.4146,3.6064 L7.4146,3.9336 L7.9405,3.9336 L7.9405,2.586 Z M15.026,1.6726 C15.4146,1.6726 15.6777,1.9319 15.716,2.3548 L14.303,2.3548 C14.3525,1.96 14.6044,1.6726 15.026,1.6726 Z M15.037,1.1708 C14.2702,1.1708 13.7446,1.7401 13.7446,2.5804 C13.7446,3.4375 14.2923,4.0012 15.0752,4.0012 C15.4696,4.0012 15.8308,3.8998 16.1486,3.6233 L15.8691,3.2232 C15.65,3.4037 15.3708,3.505 15.1081,3.505 C14.7411,3.505 14.3689,3.2908 14.303,2.8059 L16.2579,2.8059 C16.2634,2.7327 16.2689,2.6592 16.2689,2.5804 C16.2634,1.7401 15.7706,1.1708 15.037,1.1708 Z M18.7166,2.586 C18.7166,3.4037 19.2476,4.0012 20.091,4.0012 C20.4853,4.0012 20.7481,3.9111 21.0328,3.6799 L20.759,3.257 C20.5455,3.4149 20.321,3.4994 20.0746,3.4994 C19.6201,3.4938 19.264,3.1272 19.264,2.586 C19.264,2.0448 19.6201,1.6782 20.0746,1.6726 C20.321,1.6726 20.5455,1.757 20.759,1.915 L21.0328,1.4921 C20.7481,1.2609 20.4853,1.1708 20.091,1.1708 C19.2476,1.1708 18.7166,1.7686 18.7166,2.586 Z M10.7768,1.4527 C10.5031,1.2665 10.1251,1.1708 9.7089,1.1708 C9.0466,1.1708 8.6414,1.4921 8.6414,2.0279 C8.6414,2.4674 8.937,2.7327 9.523,2.8172 L9.7913,2.8566 C10.1033,2.9016 10.2731,3.0145 10.2731,3.1666 C10.2731,3.3752 10.0431,3.5107 9.6542,3.5107 C9.2435,3.5107 8.9753,3.3809 8.7838,3.2288 L8.5153,3.6517 C8.9042,3.9449 9.3696,4.0012 9.6488,4.0012 C10.4046,4.0012 10.8205,3.6405 10.8205,3.1272 C10.8205,2.6536 10.5031,2.4111 9.928,2.3267 L9.6597,2.2872 C9.4133,2.2534 9.1943,2.1743 9.1943,1.9941 C9.1943,1.7967 9.4024,1.6613 9.7144,1.6613 C10.0486,1.6613 10.3715,1.7911 10.5304,1.8925 L10.7768,1.4527 Z M18.1196,1.1708 C17.7912,1.1708 17.5558,1.3288 17.4078,1.5656 L17.4078,1.2384 L16.8877,1.2384 L16.8877,3.9336 L17.4133,3.9336 L17.4133,2.4168 C17.4133,1.9713 17.6214,1.6838 17.9938,1.6838 C18.1087,1.6838 18.2293,1.7007 18.3496,1.7514 L18.5249,1.244 C18.3991,1.1933 18.2348,1.1708 18.1196,1.1708 Z M13.2628,1.2384 L12.3101,1.2384 L12.3101,0.421 L11.779,0.421 L11.779,1.2384 L11.2258,1.2384 L11.2258,1.7289 L11.779,1.7289 L11.779,3.0033 C11.779,3.6289 11.9926,4.0012 12.6658,4.0012 C12.9122,4.0012 13.1971,3.9223 13.3779,3.7925 L13.2136,3.3133 C13.0437,3.4149 12.8575,3.4656 12.7098,3.4656 C12.4249,3.4656 12.3101,3.2851 12.3101,3.0145 L12.3101,1.7289 L13.2628,1.7289 L13.2628,1.2384 Z M4.7318,3.9336 L4.7318,2.2363 C4.7318,1.5994 4.3593,1.1764 3.7241,1.1708 C3.3902,1.1652 3.0451,1.2722 2.8042,1.65 C2.6234,1.3513 2.3387,1.1708 1.939,1.1708 C1.6598,1.1708 1.3642,1.2496 1.1506,1.5656 L1.1506,1.2384 L0.625,1.2384 L0.625,3.9336 L1.1561,3.9336 L1.1561,2.3886 C1.1561,1.9206 1.4298,1.6726 1.8186,1.6726 C2.1963,1.6726 2.4098,1.9263 2.4098,2.383 L2.4098,3.9336 L2.9412,3.9336 L2.9412,2.3886 C2.9412,1.9206 3.2258,1.6726 3.6038,1.6726 C3.9926,1.6726 4.2004,1.9263 4.2004,2.383 L4.2004,3.9336 L4.7318,3.9336 Z" id="Shape" fill="#FFFFFF" mask="url(#mask-2)"></path>
                </g>
                <g id="Clipped" transform="translate(60.000000, 2.000000)">
                    <mask id="mask-4" fill="white">
                        <use xlink:href="#path-3"></use>
                    </mask>
                    <g id="Path"></g>
                    <g id="Group" mask="url(#mask-4)">
                        <polygon id="Path" fill="#FF5F00" points="12.1655 18.6685 21.6422 18.6685 21.6422 2.72974 12.1655 2.72974"></polygon>
                        <path d="M13.1435,10.6989 C13.1435,7.46531 14.6139,4.58566 16.9035,2.72953 C15.2289,1.37206 13.1162,0.56226 10.8197,0.56226 C5.3831,0.56226 0.9761,5.10066 0.9761,10.6989 C0.9761,16.2971 5.3831,20.8355 10.8197,20.8355 C13.1162,20.8355 15.2289,20.0257 16.9035,18.6683 C14.6139,16.8121 13.1435,13.9325 13.1435,10.6989 Z" id="Path" fill="#EB001B"></path>
                        <path d="M32.5237,17.0794 L32.5237,16.5867 L32.4239,16.5867 L32.3091,16.9256 L32.1945,16.5867 L32.0947,16.5867 L32.0947,17.0794 L32.165,17.0794 L32.165,16.7077 L32.2727,17.0283 L32.3457,17.0283 L32.4532,16.7069 L32.4532,17.0794 L32.5237,17.0794 Z M31.8918,17.0794 L31.8918,16.6706 L32.0197,16.6706 L32.0197,16.5874 L31.6943,16.5874 L31.6943,16.6706 L31.822,16.6706 L31.822,17.0794 L31.8918,17.0794 Z" id="Shape" fill="#F79E1B"></path>
                        <path d="M32.8313,10.6989 C32.8313,16.2971 28.424,20.8355 22.9877,20.8355 C20.6912,20.8355 18.5782,20.0257 16.9038,18.6683 C19.1935,16.8121 20.6638,13.9325 20.6638,10.6989 C20.6638,7.46531 19.1935,4.58566 16.9038,2.72953 C18.5782,1.37206 20.6912,0.56226 22.9877,0.56226 C28.424,0.56226 32.8313,5.10066 32.8313,10.6989 Z" id="Path" fill="#F79E1B"></path>
                    </g>
                </g>
                <rect id="Rectangle" stroke="#979797" stroke-width="2.25" fill="#FFFFFF" fill-rule="nonzero" x="0.125" y="1.125" width="45.2283" height="28.4978" rx="3.375"></rect>
                <path d="M30.9126,9.67463 C30.3138,9.44842 29.3764,9.20435 28.2039,9.20435 C25.2202,9.20435 23.1162,10.7164 23.0985,12.8848 C23.0808,14.4861 24.5992,15.3806 25.7451,15.9148 C26.9205,16.461 27.3183,16.8093 27.3124,17.2974 C27.3035,18.0445 26.372,18.3853 25.5026,18.3853 C24.2961,18.3853 23.6544,18.2157 22.6609,17.8004 L22.272,17.6248 L21.8477,20.1206 C22.5514,20.4317 23.857,20.701 25.2128,20.7144 C28.3887,20.7144 30.4498,19.2202 30.4735,16.9045 C30.4838,15.638 29.681,14.6722 27.9378,13.8759 C26.8806,13.3595 26.2345,13.0157 26.2389,12.4934 C26.2389,12.0305 26.7889,11.5349 27.9703,11.5349 C28.958,11.5186 29.6751,11.7359 30.231,11.9606 L30.5016,12.0901 L30.9126,9.67463 Z" id="Path" fill="#16216A"></path>
                <path d="M38.6574,9.40967 L36.3243,9.40967 C35.6013,9.40967 35.0601,9.60909 34.7437,10.3339 L30.2563,20.5522 L33.4293,20.5522 C33.4293,20.5522 33.9468,19.1785 34.0651,18.8779 C34.4111,18.8779 37.4923,18.8823 37.9329,18.8823 C38.0231,19.2723 38.3011,20.5522 38.3011,20.5522 L41.1044,20.5522 L38.6574,9.40967 Z M34.933,16.5979 C35.1843,15.9535 36.1365,13.4785 36.1365,13.4785 C36.1202,13.5098 36.3849,12.8341 36.5357,12.4144 L36.7412,13.3758 C36.7412,13.3758 37.3208,16.0383 37.4421,16.5979 L34.933,16.5979 Z" id="Shape" fill="#16216A"></path>
                <path d="M14.4016,9.40674 L11.4445,17.0102 L11.1281,15.4654 C10.5796,13.6854 8.86298,11.7537 6.94531,10.7878 L9.6481,20.5388 L12.8447,20.5358 L17.6012,9.40674 L14.4016,9.40674 Z" id="Path" fill="#16216A"></path>
                <path d="M8.70077,9.40063 L3.82749,9.40063 L3.79053,9.63131 C7.58003,10.554 10.0891,12.7864 11.1285,15.4652 L10.0699,10.3412 C9.8866,9.63429 9.3572,9.42593 8.70077,9.40063 Z" id="Path" fill="#16216A"></path>
                <polygon id="Path" fill="#16216A" points="16.936 20.5476 18.8241 9.39917 21.8463 9.39917 19.9537 20.5476"></polygon>
            </g>
        </g>
    </g>
</svg>